{
  "lang":"fr",
  "name":"pipeline",
  "version":"0.0.0",
  "description":"",
  "author":"",
  "email":"",
  "url":"",
  "license":"",
  "spacy_version":">=3.7.2,<3.8.0",
  "spacy_git_version":"a89eae928",
  "vectors":{
    "width":0,
    "vectors":0,
    "keys":0,
    "name":null
  },
  "labels":{
    "tok2vec":[

    ],
    "ner":[
      "CERTIFICATION",
      "DATE",
      "JOB",
      "LIEU",
      "ORGANISATION",
      "SKILL",
      "UNIVERSITY"
    ]
  },
  "pipeline":[
    "tok2vec",
    "ner"
  ],
  "components":[
    "tok2vec",
    "ner"
  ],
  "disabled":[

  ],
  "performance":{
    "ents_f":0.98699948,
    "ents_p":0.9916405434,
    "ents_r":0.9824016563,
    "ents_per_type":{
      "JOB":{
        "p":0.9898989899,
        "r":0.98,
        "f":0.9849246231
      },
      "ORGANISATION":{
        "p":1.0,
        "r":1.0,
        "f":1.0
      },
      "DATE":{
        "p":1.0,
        "r":1.0,
        "f":1.0
      },
      "SKILL":{
        "p":0.9828571429,
        "r":0.9582172702,
        "f":0.9703808181
      },
      "UNIVERSITY":{
        "p":1.0,
        "r":1.0,
        "f":1.0
      },
      "CERTIFICATION":{
        "p":1.0,
        "r":1.0,
        "f":1.0
      },
      "LIEU":{
        "p":0.9911504425,
        "r":1.0,
        "f":0.9955555556
      }
    },
    "tok2vec_loss":1287.6903325919,
    "ner_loss":578.6625645314
  },
  "requirements":[

  ]
}